^C:\USERS\USER\DOCUMENTS\VISUAL STUDIO 2015\PROJECTS\CONSOLEAPPLICATION13\CONSOLEAPPLICATION13\DEBUG\CONSOLEAPPLICATION13.OBJ|C:\USERS\USER\DOCUMENTS\VISUAL STUDIO 2015\PROJECTS\CONSOLEAPPLICATION13\CONSOLEAPPLICATION13\DEBUG\STDAFX.OBJ
/OUT:"C:\USERS\USER\DOCUMENTS\VISUAL STUDIO 2015\PROJECTS\CONSOLEAPPLICATION13\DEBUG\CONSOLEAPPLICATION13.EXE" /INCREMENTAL /NOLOGO KERNEL32.LIB USER32.LIB GDI32.LIB WINSPOOL.LIB COMDLG32.LIB ADVAPI32.LIB SHELL32.LIB OLE32.LIB OLEAUT32.LIB UUID.LIB ODBC32.LIB ODBCCP32.LIB /MANIFEST /MANIFESTUAC:"level='asInvoker' uiAccess='false'" /manifest:embed /DEBUG /PDB:"C:\USERS\USER\DOCUMENTS\VISUAL STUDIO 2015\PROJECTS\CONSOLEAPPLICATION13\DEBUG\CONSOLEAPPLICATION13.PDB" /SUBSYSTEM:CONSOLE /TLBID:1 /DYNAMICBASE /NXCOMPAT /IMPLIB:"C:\USERS\USER\DOCUMENTS\VISUAL STUDIO 2015\PROJECTS\CONSOLEAPPLICATION13\DEBUG\CONSOLEAPPLICATION13.LIB" /MACHINE:X86 DEBUG\CONSOLEAPPLICATION13.OBJDEBUG\STDAFX.OBJ
^C:\USERS\NASTYA\DESKTOP\РЕПОЗИТОРИЙ\MY_PROJECT\CONSOLEAPPLICATION13\CONSOLEAPPLICATION13\DEBUG\CONSOLEAPPLICATION13.OBJ|C:\USERS\NASTYA\DESKTOP\РЕПОЗИТОРИЙ\MY_PROJECT\CONSOLEAPPLICATION13\CONSOLEAPPLICATION13\DEBUG\STDAFX.OBJ
/OUT:"C:\USERS\NASTYA\DESKTOP\РЕПОЗИТОРИЙ\MY_PROJECT\CONSOLEAPPLICATION13\DEBUG\CONSOLEAPPLICATION13.EXE" /INCREMENTAL /NOLOGO KERNEL32.LIB USER32.LIB GDI32.LIB WINSPOOL.LIB COMDLG32.LIB ADVAPI32.LIB SHELL32.LIB OLE32.LIB OLEAUT32.LIB UUID.LIB ODBC32.LIB ODBCCP32.LIB /MANIFEST /MANIFESTUAC:"level='asInvoker' uiAccess='false'" /manifest:embed /DEBUG:FASTLINK /PDB:"C:\USERS\NASTYA\DESKTOP\РЕПОЗИТОРИЙ\MY_PROJECT\CONSOLEAPPLICATION13\DEBUG\CONSOLEAPPLICATION13.PDB" /SUBSYSTEM:CONSOLE /TLBID:1 /DYNAMICBASE /NXCOMPAT /IMPLIB:"C:\USERS\NASTYA\DESKTOP\РЕПОЗИТОРИЙ\MY_PROJECT\CONSOLEAPPLICATION13\DEBUG\CONSOLEAPPLICATION13.LIB" /MACHINE:X86 DEBUG\CONSOLEAPPLICATION13.OBJDEBUG\STDAFX.OBJ
